…
# Clean data (Data cleaning process)
hall_fame_clean <- data %>%
  select(name = 2, votes = 4, percent = 5) %>%
  mutate(name = str_remove(as.character(name), "^X-"), votes = as.numeric(votes), percent = parse_number(as.character(percent)), 
         year = 2026, inducted = ifelse(percent >= 75, "Yes", "No")) %>%
  filter(!is.na(name), !is.na(votes), !is.na(percent)) %>%
  select(name, year, votes, percent, inducted)
hall_fame_clean
```

    ## # A tibble: 27 × 5
    ##    name             year votes percent inducted
    ##    <chr>           <dbl> <dbl>   <dbl> <chr>   
    ##  1 Carlos Beltrán   2026   358    84.2 Yes     
    ##  2 Andruw Jones     2026   333    78.4 Yes     
    ##  3 Chase Utley      2026   251    59.1 No      
    ##  4 Andy Pettitte    2026   206    48.5 No      
    ##  5 Félix Hernández  2026   196    46.1 No      
    ##  6 Alex Rodriguez   2026   170    40   No      
    ##  7 Manny Ramirez    2026   165    38.8 No      
    ##  8 Bobby Abreu      2026   131    30.8 No      
    ##  9 Jimmy Rollins    2026   108    25.4 No      
    ## 10 Cole Hamels      2026   101    23.8 No      
    ## # ℹ 17 more rows
…
